{
  "RU": [
    {
      "x": -0.4688324003685919,
      "y": 0.7252799347576548,
      "z": -0.5016472993498443
    },
    {
      "x": -0.31276293990435167,
      "y": 0.8498746087484508,
      "z": -0.4198759661357164
    },
    {
      "x": -0.4426499130745149,
      "y": 0.8392627147079258,
      "z": -0.3095525301688072
    },
    {
      "x": -0.5677669652375685,
      "y": 0.8225449602997668,
      "z": 0.0025614477748857264
    },
    {
      "x": -0.17979680484285837,
      "y": 0.9057458470304838,
      "z": 0.3790117769307279
    },
    {
      "x": -0.45550110082460327,
      "y": 0.7884474472869379,
      "z": 0.4104926741484481
    },
    {
      "x": -0.3791597354179438,
      "y": 0.9137548403450955,
      "z": 0.13756852017416094
    },
    {
      "x": -0.42605158128638665,
      "y": 0.9014540634770969,
      "z": -0.045282853316686245
    },
    {
      "x": -0.5071285403886208,
      "y": 0.8410175054827829,
      "z": 0.18038221755160358
    }
  ],
  "MN": [
    {
      "x": -0.6804991140830925,
      "y": 0.7241316458030852,
      "z": 0.09542399215707138
    },
    {
      "x": -0.6541230457839361,
      "y": 0.7176855823677885,
      "z": 0.23464650720939623
    }
  ],
  "CN": [
    {
      "x": -0.5828294408105749,
      "y": 0.7069733367600848,
      "z": 0.39766308088018876
    },
    {
      "x": -0.7782228703168469,
      "y": 0.5645044011889859,
      "z": 0.27049612263458667
    },
    {
      "x": -0.7992268992053533,
      "y": 0.4660465795768116,
      "z": 0.3764126619894838
    },
    {
      "x": -0.8033186939401562,
      "y": 0.5914440501002336,
      "z": -0.029526277019649234
    },
    {
      "x": -0.8630273341823518,
      "y": 0.46090475946757614,
      "z": 0.20012125255802024
    }
  ],
  "US": [
    {
      "x": 0.2052083960203148,
      "y": 0.9028649264426217,
      "z": 0.37279131669616716
    },
    {
      "x": 0.6583876672387539,
      "y": 0.6854667886272022,
      "z": 0.30429101050989665
    },
    {
      "x": 0.7069846133822305,
      "y": 0.69223623479841,
      "z": 0.13253145221696347
    },
    {
      "x": 0.7516626828235233,
      "y": 0.6107712362205991,
      "z": 0.24025874818528586
    },
    {
      "x": 0.8016786081387194,
      "y": 0.5929511594610424,
      "z": -0.050574285305331125
    },
    {
      "x": 0.8255386829660882,
      "y": 0.5528876003246113,
      "z": 0.09994221158368617
    },
    {
      "x": 0.7216154573707173,
      "y": 0.666598104859631,
      "z": -0.18353804600923523
    },
    {
      "x": 0.7115034266405753,
      "y": 0.592153548387953,
      "z": 0.37508959164151423
    }
  ],
  "CA": [
    {
      "x": 0.5378841600672846,
      "y": 0.8153572921069603,
      "z": -0.21029614363809057
    },
    {
      "x": 0.5868652727165954,
      "y": 0.805903192298763,
      "z": 0.059217212867655106
    },
    {
      "x": 0.462083839534994,
      "y": 0.8499471209224843,
      "z": 0.24962005061597772
    },
    {
      "x": 0.42952218720788926,
      "y": 0.894190997591871,
      "z": 0.11865836178774986
    }
  ],
  "GL": [
    {
      "x": 0.14695001001933372,
      "y": 0.9735115131874428,
      "z": -0.16899842529704295
    },
    {
      "x": 0.2518844926105913,
      "y": 0.9286380274334921,
      "z": -0.26607288853760497
    }
  ],
  "MX": [
    {
      "x": 0.9090343332168329,
      "y": 0.37244868963988953,
      "z": 0.17643173521876668
    }
  ],
  "BR": [
    {
      "x": 0.8768646702266057,
      "y": -0.05407717997645005,
      "z": -0.4738443832473954
    },
    {
      "x": 0.7497451454385712,
      "y": -0.16482583317638874,
      "z": -0.6401796401209877
    },
    {
      "x": 0.7137756947901303,
      "y": -0.37560370836499674,
      "z": -0.5898763527968888
    }
  ],
  "AR": [
    {
      "x": 0.7584162709984384,
      "y": -0.5394550981000387,
      "z": -0.36077277814091774
    }
  ],
  "CL": [
    {
      "x": 0.7822614441131294,
      "y": -0.5618470117603279,
      "z": -0.26818242360438427
    }
  ],
  "IT": [
    {
      "x": -0.17080202284681834,
      "y": 0.6712879068772768,
      "z": -0.7210651887579181
    }
  ],
  "GB": [
    {
      "x": 0.022494464324845614,
      "y": 0.7903398389482349,
      "z": -0.6117540152964654
    }
  ],
  "NO": [
    {
      "x": -0.07583785746285632,
      "y": 0.8751392037545881,
      "z": -0.47708662656192513
    }
  ],
  "SE": [
    {
      "x": -0.13042765540952483,
      "y": 0.901935168183971,
      "z": -0.4107319710596664
    }
  ],
  "FI": [
    {
      "x": -0.20155161032651261,
      "y": 0.8857821533368853,
      "z": -0.4165517772967424
    }
  ],
  "GR": [
    {
      "x": -0.28694190565329863,
      "y": 0.6382167429421968,
      "z": -0.7141945370150364
    }
  ],
  "SA": [
    {
      "x": -0.5768898889084202,
      "y": 0.45414714360880193,
      "z": -0.6773054192987481
    },
    {
      "x": -0.6619378138496881,
      "y": 0.39240175749886197,
      "z": -0.6339654307712146
    }
  ],
  "AU": [
    {
      "x": -0.7647878630881805,
      "y": -0.44776427317148315,
      "z": 0.46023880285771973
    },
    {
      "x": -0.7145209962822329,
      "y": -0.2916135609059614,
      "z": 0.634439570709037
    },
    {
      "x": -0.5459008119347275,
      "y": -0.4829844610425795,
      "z": 0.6828599873020932
    },
    {
      "x": -0.6667395250900531,
      "y": -0.41191576501876825,
      "z": 0.6206517528170693
    },
    {
      "x": -0.5562656037690131,
      "y": -0.3766286719612126,
      "z": 0.7375020822806886
    },
    {
      "x": -0.49156442449276205,
      "y": -0.5972936029411565,
      "z": 0.6325876839762257
    }
  ],
  "ID": [
    {
      "x": -0.6624819349064499,
      "y": -0.06549781838790761,
      "z": 0.7447173798320906
    },
    {
      "x": -0.9132807952329905,
      "y": -0.01051972853894681,
      "z": 0.40641524673679824
    },
    {
      "x": -0.9687928060667456,
      "y": -0.054837145477051874,
      "z": 0.23862081271699584
    }
  ],
  "JP": [
    {
      "x": -0.5324494357243278,
      "y": 0.5908167114297209,
      "z": 0.6057970329840462
    }
  ],
  "UA": [
    {
      "x": -0.3409202544466519,
      "y": 0.7606588451595464,
      "z": -0.5519735535838171
    }
  ],
  "IL": [
    {
      "x": -0.4914088894279142,
      "y": 0.5106581899069491,
      "z": -0.7053402924002804
    },
    {
      "x": -0.48476632422216726,
      "y": 0.5384106501770956,
      "z": -0.68919260803626
    },
    {
      "x": -0.48638071431373864,
      "y": 0.5240378619033873,
      "z": -0.6991139067528974
    }
  ],
  "KZ": [
    {
      "x": -0.6497741654994825,
      "y": 0.7415032162752129,
      "z": -0.1585902655998075
    },
    {
      "x": -0.6023715493879978,
      "y": 0.7426660742112535,
      "z": -0.28692544034535616
    }
  ],
  "PG": [
    {
      "x": -0.5785471649096577,
      "y": -0.10903972946601968,
      "z": 0.8080317984399913
    }
  ]
}
